{
  "menu": [
    {
      "name": "Главная",
      "url": "#/"
    },
    {
      "name": "Услуги",
      "url": ""
    },
    {
      "name": "Фото и видео",
      "url": "#/gallery"
    },
    {
      "name": "Контакты",
      "url": "#/contacts"
    }
  ],
  "phones": [
    {
      "tel": "+3 8 093 123 12 12"
    },
    {
      "tel": "+3 8 067 321 32 32"
    }
  ],
  "address": [
    {
      "loc": "Казахстан, Алматы"
    }
  ],
  "persons": [
    {
      "name": "Сергей"
    }
  ],
  "categories": [
    {
      "id":0,
      "name": "Led-дисплеи, плазмы, экраны, проекторы",
      "nameUrl": "displays",
      "imageUrl": "image-1.jpg",
      "imageDetail": "gal-big-1.png",
      "iconUrl": "#displays"
    },
    {
      "id":1,
      "name": "Световое оборудование",
      "nameUrl": "lights",
      "imageUrl": "image-2.jpg",
      "imageDetail": "gal-big-2.png",
      "iconUrl": "#light"
    },
    {
      "id":2,
      "name": "Звуковое оборудование",
      "nameUrl": "sounds",
      "imageUrl": "image-3.jpg",
      "imageDetail": "gal-big-3.png",
      "iconUrl": "#sound"
    },
    {

      "id":3,
      "name": "Сценические конструкции",
      "nameUrl": "stages",
      "imageUrl": "image-4.jpg",
      "imageDetail": "gal-big-4.png",
      "iconUrl": "#stage"
    }
  ],
  "slider": [
    {
      "image": "1.jpg"
    },
    {
      "image": "2.jpg"
    },
    {
      "image": "3.jpg"
    }
  ],
  "gallery": [
    {
      "text": "Grand Opera, LED",
      "url": "gal-2.jpg",
      "urlBig": "gal-big-2.png"
    },
    {
      "text": "Esperanza",
      "url": "gal-5.jpg",
      "urlBig": "gal-big-5.png"
    },
    {
      "text": "Презентация KIA",
      "url": "gal-4.jpg",
      "urlBig": "gal-big-4.png"
    },
    {
      "text": "Ritz Carlton, stage",
      "url": "gal-3.jpg",
      "urlBig": "gal-big-3.png"
    },
    {
      "text": "Grand Opera, LED",
      "url": "gal-6.jpg",
      "urlBig": "gal-big-6.png"
    },
    {
      "text": "Esperanza",
      "url": "gal-7.jpg",
      "urlBig": "gal-big-7.jpg"
    },
    {
      "text": "Презентация KIA",
      "url": "gal-2.jpg",
      "urlBig": "gal-big-2.png"
    },
    {
      "text": "Grand Opera, LED",
      "url": "gal-1.jpg",
      "urlBig": "gal-big-1.png"
    },
    {
      "text": "Esperanza",
      "url": "gal-3.jpg",
      "urlBig": "gal-big-3.png"
    },
    {
      "text": "Презентация KIA",
      "url": "gal-6.jpg",
      "urlBig": "gal-big-6.png"
    },
    {
      "text": "Ritz Carlton, stage",
      "url": "gal-4.jpg",
      "urlBig": "gal-big-4.png"
    },
    {
      "text": "Grand Opera, LED",
      "url": "gal-7.jpg",
      "urlBig": "gal-big-7.jpg"
    }
  ],
  "video": [
    {
      "url": "https://www.youtube.com/embed/t3KH5LXHi0s?list=PLqHlAwsJRxANlSuRSgldPWsbNkPqVBeFp"
    },
    {
      "url": "https://www.youtube.com/embed/bKkmK3pa-NY?list=PLqHlAwsJRxANlSuRSgldPWsbNkPqVBeFp"
    },
    {
      "url": "https://www.youtube.com/embed/LxPC_wFi3KA?list=PLqHlAwsJRxANlSuRSgldPWsbNkPqVBeFp"
    },
    {
      "url": "https://www.youtube.com/embed/gtCR3FdTIck?list=PLqHlAwsJRxANlSuRSgldPWsbNkPqVBeFp"
    },
    {
      "url": "https://www.youtube.com/embed/GwANSDnaNGs?list=PLqHlAwsJRxANlSuRSgldPWsbNkPqVBeFp"
    },
    {
      "url": "https://www.youtube.com/embed/iq94RcTut1I?list=PLqHlAwsJRxANlSuRSgldPWsbNkPqVBeFp"
    },
    {
      "url": "https://www.youtube.com/embed/j4S0w-YoGqc?list=PLqHlAwsJRxANlSuRSgldPWsbNkPqVBeFp"
    },
    {
      "url": "https://www.youtube.com/embed/YgHxvZg7rnM?list=PLqHlAwsJRxANlSuRSgldPWsbNkPqVBeFp"
    },
    {
      "url": "https://www.youtube.com/embed/5FoLysEGXMY?list=PLqHlAwsJRxANlSuRSgldPWsbNkPqVBeFp"
    }
  ]
}